<?xml version="1.0" encoding="UTF-8" standalone="no"?>
<!DOCTYPE svg PUBLIC "-//W3C//DTD SVG 1.1//EN"
"http://www.w3.org/Graphics/SVG/1.1/DTD/svg11.dtd">
<svg version="1.1" xmlns="http://www.w3.org/2000/svg" xmlns:xlink="http://www.w3.org/1999/xlink">
<defs>
<clipPath id="c0_1"><path d="M0.5,1231.5L0.5,0.5l935,0l0,1231Z" /></clipPath>
<clipPath id="c1_1"><path d="M424.5,216.5l0,-107l87,0l0,107Z" /></clipPath>
<style type="text/css"><![CDATA[
.g2_1{
fill: #FFF1F4;
}
.g1_1{
fill: #F7AFC7;
}
.g5_1{
fill: #FFFFFF;
}
.g4_1{
}
.g3_1{
fill: none;
stroke: #FAD2DE;
stroke-width: 8;
stroke-linecap: butt;
stroke-linejoin: miter;
stroke-miterlimit: 4;
}
.g6_1{
fill: none;
stroke: #FFFFFF;
stroke-width: 1;
stroke-linecap: butt;
stroke-linejoin: miter;
}
]]></style>
</defs>
<path d="M0,1231l935,0L935,0L0,0L0,1231Z" class="g1_1" />
<g clip-path="url(#c0_1)">
<path d="M92,64C77,64,64,77,64,92l0,1047c0,15,13,27,28,27l750,0c15,0,28,-12,28,-27L870,92C870,77,857,64,842,64L92,64Z" class="g2_1" />
<path d="M92,64C77,64,64,77,64,92l0,1047c0,15,13,27,28,27l750,0c15,0,28,-12,28,-27L870,92C870,77,857,64,842,64L92,64Z" class="g3_1" />
</g>
<g clip-path="url(#c1_1)">
<path d="M451,144c0,0,0,1,0,4c0,3,1,24,1,24c0,0,0,10,-7,16l0,1c0,0,-1,1,-2,2c0,0,-1,2,-4,3c0,0,-2,1,-3,1c0,0,0,1,0,1l-3,1l0,1l-5,2l1,3l3,-1l1,0c0,0,2,-1,2,-1c0,0,2,0,2,-1c0,0,1,0,1,0c0,0,2,0,3,-2l1,0c0,0,-1,2,-2,3l0,1l-2,1l0,1l-1,0c0,0,-1,0,0,1l-3,2l3,4c0,0,1,-1,1,-2l1,0c0,0,1,-1,1,-2c1,0,0,0,1,0c1,0,1,0,1,0c0,-1,0,-1,0,-1c0,0,1,0,1,-1c1,0,1,0,1,-1c1,-1,1,-2,2,-3c1,0,2,-1,2,-2l1,0c0,0,0,1,-1,2c0,0,0,1,-1,2c0,0,0,1,0,1c-1,0,0,1,-1,2c-1,0,-1,1,-1,1c0,0,0,1,-1,2c0,0,-1,1,-1,1c0,0,1,1,0,1c0,1,0,3,0,3l3,1c0,0,0,-3,2,-2c0,0,0,-2,0,-3c1,-1,1,-1,1,-1l0,-2l1,0c0,0,1,-2,2,-1l0,-1c0,-1,-1,-1,0,-2c0,-1,1,-1,1,-1c1,-1,1,0,1,0c0,0,-1,1,-1,1c0,0,0,1,0,2c0,1,0,1,0,1c0,0,-1,2,-1,3c0,0,-1,0,0,2c0,0,-1,3,-1,4c-1,1,0,1,0,1c0,0,4,1,4,1l0,-4c0,0,0,-1,1,-1c0,0,0,-1,0,-2c0,-1,0,-1,0,-2c1,0,0,-1,0,-1c0,0,1,-1,1,0c0,0,1,0,1,-1c0,-2,0,-3,0,-3c0,0,1,-1,1,0c1,2,0,2,0,3c0,1,1,1,0,2c0,0,0,2,-1,3l1,1l0,5l5,1l-1,-6l0,-1c0,0,-1,-2,1,-2c0,0,-1,-2,-1,-2c0,-1,1,1,1,-1c0,0,0,-3,0,-3c0,0,1,2,1,3c0,2,0,2,0,2c0,1,0,1,-1,3c0,0,1,1,1,2c0,0,1,4,1,4l4,1l-1,-6c0,0,1,-1,0,-2c-1,-1,0,-1,0,-1c0,0,-1,-2,0,-2c0,0,1,0,1,0l0,-1c-1,0,0,-3,0,-3c0,0,1,1,1,2c0,0,0,1,0,1l0,1c0,0,1,0,0,1c0,0,0,1,1,1l0,1c0,0,-1,1,-1,1c0,0,0,1,1,1c0,0,1,4,1,5l5,0c0,0,-2,-3,-2,-4c0,0,0,-1,0,-2c0,0,1,0,0,-1c0,-1,-1,-1,-1,-2c0,-1,1,0,0,-2c0,-1,0,-1,0,-3c1,-1,0,-1,0,-1c0,0,2,2,2,3c0,1,3,10,3,10l5,0c0,0,-1,-2,-1,-2c0,-1,1,-1,0,-2c-1,-2,-1,-2,0,-2c0,0,-1,-1,-1,-1c0,0,0,-1,0,-1c-1,-1,-1,-2,-1,-3c-1,0,-1,0,-1,-1c0,0,0,-1,0,-2c-1,0,-1,-2,0,-1c1,1,2,3,2,3c1,1,2,3,2,3c1,1,1,1,2,2c0,0,0,1,1,1c0,0,1,1,3,6l4,-3c0,0,-1,-3,-2,-3c0,0,-1,-1,-1,-1c-1,-1,0,-1,-1,-1c0,0,0,-1,0,-1l0,-1c-1,0,-1,-1,-2,-1c0,0,0,-1,-1,-1c0,-1,-1,-2,-1,-2c-1,-1,-1,-1,1,-1c0,0,1,1,1,1c1,1,2,1,3,1c0,1,2,2,2,2c1,0,1,2,2,2c2,0,3,0,3,0l2,-3c0,0,-7,-4,-8,-4l-1,-1c-1,-1,0,-1,-1,-1c-1,0,-2,-1,-2,-1c0,0,0,-1,-1,-1c-1,0,-6,-4,-6,-4c0,0,2,-1,0,-2c-2,-2,-4,-7,-5,-13c0,-1,-1,-12,0,-18c0,-1,0,-12,0,-12l0,1c0,0,-3,4,-3,4c0,0,-2,-3,-3,-6c0,0,0,1,0,2c0,1,0,2,0,2c0,0,0,1,-2,0c0,0,-1,0,-1,-1c0,-1,-1,-2,-2,-2c0,0,1,-1,0,-1c0,0,-2,-1,-3,2c0,2,0,2,0,2c0,0,1,1,-1,1c-1,-1,-1,-3,-1,-3c0,0,-1,-1,-1,0c0,2,-1,3,-1,4c0,0,-1,0,-2,-5l0,-4l0,1c0,1,0,2,-1,3c0,2,-1,3,-1,3c0,1,-1,0,-1,0c0,0,0,-1,-1,-2c0,-1,-1,-2,-1,-2c-1,-1,0,-1,-1,-1Z" class="g4_1" />
<path d="M486,165c4,-5,7,-11,7,-18c0,-16,-14,-29,-30,-29c-16,0,-29,13,-29,29c0,7,3,13,7,18l-12,0c-3,-5,-5,-11,-5,-18c0,-21,18,-38,39,-38c22,0,40,17,40,38c0,7,-2,13,-5,18Z" class="g4_1" />
<path d="M429,163l0,-1c-1,0,-1,0,0,-1c2,0,2,0,2,1ZM433,159l-2,2c0,0,-1,-1,-2,0c-1,0,-1,1,-1,1l1,1l4,-2c1,0,1,0,1,0l0,-1l-1,1l-2,0l3,-2l-1,0Z" class="g5_1" />
<path d="M433,157l0,2c0,0,0,-1,-1,0l-4,1l0,1l-1,0l0,-2l1,-1c-1,1,-1,1,-1,1l1,1l2,-1c0,-1,-1,-1,-1,-1l2,0c-1,0,-1,0,-1,0l0,1l2,-1c1,0,1,0,1,0c-1,-1,-1,-1,-2,-1Z" class="g5_1" />
<path d="M427,157c0,0,0,-1,1,-1c1,0,1,0,1,0c0,0,0,1,0,1ZM427,158l1,0l3,-1c1,-1,1,-1,2,0l-1,-2l0,1l-2,1c0,-1,0,-1,0,-1c0,0,-1,0,-1,0c0,0,-1,0,-1,0c-1,0,-2,1,-2,1l1,1Z" class="g5_1" />
<path d="M427,155c-1,0,-1,0,-1,0c0,-1,0,-1,1,-1c2,0,2,0,2,0ZM432,152c0,0,-1,0,-1,1l-2,1c0,0,-1,-1,-2,-1c-1,1,-1,1,-1,2l0,1c0,-1,0,-1,1,-1l4,-1c1,0,1,0,1,1l0,-2l0,1l-1,0l-2,0l3,-1l0,-1Z" class="g5_1" />
<path d="M431,151c0,0,0,1,-2,1c-3,0,-3,0,-3,0c-1,-1,0,-1,2,-2c2,0,3,1,3,1m1,0c0,-1,-2,-1,-4,-1c-2,0,-3,1,-3,2c0,0,1,1,4,1c2,-1,3,-1,3,-2Z" class="g5_1" />
<path d="M426,149c0,0,-1,0,-1,0c0,-1,1,-1,1,-1c1,0,2,-1,2,-1c3,0,3,1,3,2ZM431,150l0,-2c0,-1,-1,-1,-3,-1c-2,0,-3,1,-3,2l0,1c0,-1,0,-1,1,-1l4,0c1,0,1,0,1,1Z" class="g5_1" />
<path d="M426,144l1,0l2,0c1,0,3,1,3,2c0,1,-2,0,-3,0l-3,0c-1,0,-1,0,-1,0l0,-1c0,1,1,1,1,1l3,0c1,0,2,0,2,-1c-1,0,-1,0,-2,0l-2,-1c-1,0,-1,0,-2,1l0,-1Z" class="g5_1" />
<path d="M428,141c-1,0,-2,0,-2,1l0,1c1,0,1,0,3,0c2,1,2,0,3,0c0,-1,-1,-1,-1,-1c0,0,1,0,1,1c0,1,-1,1,-3,1c-3,-1,-4,-1,-4,-2c1,0,1,-1,1,-1l2,0Z" class="g5_1" />
<path d="M432,140l0,1l-1,0l-4,-2l-1,1c0,0,1,0,1,1l-1,-1l0,-2l2,0l0,1c-1,-1,-1,-1,-1,0l4,1c1,0,1,0,1,0Z" class="g5_1" />
<path d="M432,139l-4,-1c-1,-1,-1,-1,-1,0l0,-1l1,0l4,1c1,1,1,1,1,0l0,2Z" class="g5_1" />
<path d="M428,134l1,0l5,3l-1,0l-5,-1c-1,0,-1,0,-1,0l0,-1l1,0c-1,0,-1,1,0,1l1,0l3,0l-3,-1c0,0,0,-1,-1,-1Z" class="g5_1" />
<path d="M435,134l-1,2c0,0,0,-1,-1,-1l-4,-2c0,0,-1,0,-1,0l1,-2l1,1c-1,0,-1,0,-1,0l0,1l2,1l0,-1l0,-1l2,1c-1,0,-1,0,-1,0l-1,1l2,1c1,0,1,0,1,0c0,-1,0,-1,-1,-2Z" class="g5_1" />
<path d="M435,133c0,0,0,-1,0,-1l-4,-2c-1,-1,-1,-1,-1,0l1,-1l0,1l2,0l0,-1l-1,-1c-1,0,-1,0,-1,0l0,-1l1,0c-1,1,-1,1,0,1l4,2c0,1,0,1,1,1l-1,1l0,-1l-1,0l-1,-1l-1,1l2,1c0,0,1,0,1,0l-1,1Z" class="g5_1" />
<path d="M438,129l-1,2c0,-1,0,-1,-1,-1l-3,-3c-1,0,-1,0,-1,0l1,-2l1,1c-1,0,-1,0,-1,0l-1,0c0,0,0,1,1,1l1,1l1,-1l-1,0l2,1c-1,0,-1,-1,-1,0l2,2l0,-1l0,-1Z" class="g5_1" />
<path d="M437,127l-2,-2l2,1ZM440,127c0,0,-1,0,-1,-1l-5,-2l3,3c0,1,1,1,1,1c0,1,0,1,0,1l1,-1l-1,0l-1,-1l1,-1l0,1c1,0,1,0,1,0l0,1l1,-1Z" class="g5_1" />
<path d="M436,122l1,1l3,3c1,-1,1,-1,0,-2l1,1l-1,2c0,-1,0,-1,-1,-1l-3,-3c0,-1,0,-1,0,-1l-1,0l1,0Z" class="g5_1" />
<path d="M442,124l0,1c0,0,0,-1,-1,-1l-3,-4c0,1,0,1,0,2l-1,-1l2,-2l1,1c-1,0,-1,0,-2,0l4,4Z" class="g5_1" />
<path d="M443,124c0,0,0,-1,-1,-1l-2,-4l-1,0l1,-1c0,1,0,1,0,1l1,2l1,-1l-1,-1c0,-1,0,-1,0,-1l-1,0l1,-1c0,1,0,1,1,1l2,4c1,0,1,0,1,0l-1,1c0,0,0,-1,0,-1l-1,-2l-1,1l1,2l1,0l-1,1Z" class="g5_1" />
<path d="M445,117c0,-1,-1,-1,-1,-1c0,0,-1,1,0,1c0,1,2,1,3,2c0,1,0,2,0,2c0,0,-1,0,-1,0c0,0,0,1,0,1l-1,-2c0,0,1,1,2,1c0,0,0,-1,0,-1c-1,-1,-1,-1,-2,-1c0,0,-1,-1,-1,-2c-1,0,-1,-1,-1,-1c1,0,1,0,1,0c0,0,0,-1,0,-1Z" class="g5_1" />
<path d="M450,120l-2,1c0,-1,0,-1,0,-1l-2,-4c-1,-1,-1,-1,-1,-1l2,-1l0,1l-1,0l1,2c1,0,1,0,0,-1l1,2c0,-1,0,-1,0,-1l-1,1l1,2l1,0c0,0,0,-1,0,-2Z" class="g5_1" />
<path d="M448,114c1,0,1,0,1,1c1,1,0,1,0,1ZM452,119c0,0,0,-1,0,-1l-2,-2l0,-1c-1,-2,-1,-2,-2,-2l-1,1c1,0,1,0,1,1l2,3c0,1,0,1,0,2l1,-1c-1,0,-1,0,-1,-1l-1,-1l2,2l1,0Z" class="g5_1" />
<path d="M452,112l0,1l1,5l-2,-4c-1,-1,-1,-1,-1,-1l1,0c0,0,0,1,0,1l2,3l-1,-4c0,-1,0,-1,0,-1Z" class="g5_1" />
<path d="M454,118c1,0,1,0,0,-1l-1,-4c0,-1,0,-1,0,-1l1,0l0,1l1,4c0,1,0,1,0,1l-1,0Z" class="g5_1" />
<path d="M457,113c0,-1,-1,-2,-1,-2c0,1,-1,1,-1,1c0,1,0,1,0,3c1,1,1,2,2,2c0,0,0,-1,1,-1c0,0,0,1,-1,2c-1,0,-2,-1,-2,-3c0,-3,0,-4,1,-4l1,0l0,2Z" class="g5_1" />
<path d="M460,117l-2,0l0,-1l0,-4c0,-1,-1,-1,-1,-1l2,0l0,1c0,-1,0,-1,0,-1l-1,0l0,1l0,2l1,0c0,-1,0,-1,0,-1l1,2l-1,0c0,-1,0,-1,0,-1l-1,0l1,2c0,1,0,1,0,1c1,0,1,-1,1,-2Z" class="g5_1" />
<path d="M462,112c0,0,-1,-1,-1,-1c0,0,-1,0,-1,1c1,1,2,1,2,3c0,1,0,2,-1,2l-1,0l0,-2c0,0,1,2,1,2c1,0,1,-1,1,-1c0,-1,-1,-1,-1,-2c-1,-1,-1,-1,-1,-2c0,-1,0,-2,1,-2c0,0,0,1,0,1c0,0,0,-1,0,-1l1,0Z" class="g5_1" />
<path d="M465,117l-1,0c0,0,0,-1,0,-1l0,-5l0,1l-1,0l1,-2l2,1l0,1c0,-1,-1,-1,-1,-1l0,5c0,0,0,1,0,1Z" class="g5_1" />
<path d="M467,111c0,0,1,0,1,1c0,2,-1,2,-1,2ZM468,117l0,-1l-1,-2c0,0,1,0,1,-2c0,-1,0,-1,-1,-1l-1,0c1,0,1,0,0,1l0,4c0,0,0,1,0,1l1,0c-1,0,-1,0,-1,-1l1,-2l0,3l1,0Z" class="g5_1" />
<path d="M469,115l1,-3l0,3ZM471,117l0,-6l-2,4c0,1,-1,2,-1,2l1,0c0,0,0,-1,0,-1l0,-1l1,0l0,1c0,0,0,1,0,1l1,1Z" class="g5_1" />
<path d="M471,117c0,1,0,0,0,0l1,-4c1,-1,1,-1,0,-1l1,0l0,1l-1,4c0,1,0,1,0,1l-1,0Z" class="g5_1" />
<path d="M476,113l0,1l-2,5l0,-6l-1,4c0,1,0,1,0,1l-1,0l1,-1l1,-4c0,-1,0,-1,0,-1l0,5l1,-3c1,-1,1,-1,0,-1l1,-1l0,1Z" class="g5_1" />
<path d="M475,119l0,-1l2,-4c0,-1,0,-1,0,-1l1,0l0,1c0,-1,-1,-1,-1,0l-1,4c-1,1,-1,1,0,1l-2,0Z" class="g5_1" />
<path d="M481,115c-1,0,-1,0,-1,1l-2,4l0,-5l-1,3c-1,1,-1,1,0,1l-1,1l0,-1l1,-1l1,-4l0,-1l1,1l-1,5l2,-3c0,-1,0,-1,0,-2l1,1Z" class="g5_1" />
<path d="M482,119l-1,0l-1,2l-1,0l0,-1c0,-1,0,-1,1,-2c0,-2,2,-3,2,-3c1,1,1,1,1,1l-1,2c0,-1,1,-2,0,-2c0,0,-1,0,-2,2c-1,1,-1,3,-1,3c1,0,1,0,1,0l1,-2l0,-1l1,1Z" class="g5_1" />
<path d="M485,119c0,-1,1,-1,1,-1l0,1c-1,1,-1,1,-2,1c1,-1,1,-1,1,-1m1,2l-1,-1l0,1c0,0,-1,1,-1,1c0,-1,0,-1,0,-2c1,0,1,0,2,-1c0,-1,0,-1,0,-1c0,0,-1,0,-1,1c-1,0,-1,0,-1,1c-1,0,-1,0,-2,1c-1,1,-1,2,0,2c0,0,1,0,1,0l0,1c0,0,1,-1,1,-1l-1,0c0,0,0,-1,1,-1l1,-1l1,0ZM483,121c0,-1,1,-1,1,-1c0,1,-1,2,-1,2c-1,1,-1,1,-1,0l1,-1Z" class="g5_1" />
<path d="M486,126l-2,-1l0,-1c1,1,1,1,1,0l3,-3c1,-1,1,-1,0,-1l1,0l1,1l-1,1c1,0,1,-1,0,-1l-2,2l1,0l1,0l-2,1c1,0,1,-1,0,-1l-2,2c1,1,1,0,2,0Z" class="g5_1" />
<path d="M491,123l0,1c0,0,-1,1,-1,2c-2,1,-3,1,-3,1c0,-1,0,-1,0,-1ZM486,126l1,1c1,1,2,0,3,-1c2,-2,2,-3,1,-3l0,-1l-1,0c1,0,1,0,0,1l-3,3c-1,0,-1,0,-1,0Z" class="g5_1" />
<path d="M494,126l-1,1l-2,1c-1,1,-2,2,-3,1c0,-1,1,-2,2,-2l2,-2c1,0,1,0,1,-1l0,1l-1,0l-2,2c-1,1,-2,2,-1,2l1,0l1,-1l2,-1c1,-1,1,-1,1,-1Z" class="g5_1" />
<path d="M494,130c1,-1,2,-1,1,-2l-1,0c0,0,-1,0,-2,1c-1,1,-2,2,-2,2c1,1,1,1,2,1c0,0,-2,0,-2,-1c0,0,0,-1,2,-2c2,-2,3,-2,4,-1c0,0,0,1,0,1l-2,1Z" class="g5_1" />
<path d="M493,132l3,-1l-2,2ZM492,135c0,-1,0,-1,1,-1l4,-4l-4,2c-1,0,-2,0,-2,0l0,1l0,-1c1,0,1,0,1,0l1,0l0,1c0,1,-1,1,-1,1l0,1Z" class="g5_1" />
<path d="M493,136l-1,-1c0,0,1,0,1,0l5,-2l-1,0c0,-1,0,-1,-1,-1l2,0l0,2l-1,0c1,0,1,0,1,-1l-5,2l0,1Z" class="g5_1" />
<path d="M493,136c0,1,0,1,1,0l4,-1c0,0,1,0,0,-1l1,0l0,1l-1,0l-4,2c-1,0,-1,0,-1,0l0,1l0,-2Z" class="g5_1" />
<path d="M494,139c0,-1,0,-1,2,-2c2,-1,3,0,3,0c1,0,0,1,-2,2c-2,0,-3,0,-3,0m-1,0c1,1,2,1,4,0c2,-1,3,-1,3,-2c0,-1,-2,-1,-4,0c-2,0,-3,1,-3,2Z" class="g5_1" />
<path d="M501,141c-1,0,-1,0,-2,0l-5,1l5,-2l-4,0c0,1,-1,1,-1,1l0,-1l1,0l5,-1l-4,3l3,-1c1,0,1,0,1,0l1,0Z" class="g5_1" />
<path d="M500,144c1,0,1,0,1,0c0,0,0,1,-2,1c-1,0,-1,-1,-1,-1ZM501,143l-1,0l-4,1c-1,0,-1,0,-1,0l0,1c0,-1,0,-1,1,-1l2,0c-1,0,-1,0,0,0c0,1,0,1,0,1c0,0,1,0,1,0c2,0,2,0,2,-1l0,-1Z" class="g5_1" />
<path d="M501,146l0,1l-1,0c-2,0,-2,0,-2,-1ZM495,148l1,0l2,-1c0,0,0,1,2,1c1,0,1,-1,1,-1l0,-1l-1,0l-4,0c-1,0,-1,0,-1,0l0,1c0,-1,0,-1,1,-1l2,0l0,1l-3,1Z" class="g5_1" />
<path d="M495,149c0,0,1,0,3,0c2,0,3,0,3,1c0,0,-1,1,-3,0c-2,0,-3,0,-3,-1m0,0c0,1,1,2,3,2c2,0,3,-1,3,-1c0,-1,-1,-2,-3,-2c-2,0,-3,1,-3,1Z" class="g5_1" />
<path d="M498,154l-1,0l-2,-1c0,0,-1,0,-1,-1c1,0,1,-1,2,-1c0,0,1,0,2,0c2,1,3,1,3,2c0,0,0,1,0,1l-2,0c1,0,2,0,2,-1c0,0,-1,-1,-3,-1c-2,-1,-3,0,-3,0c0,1,0,1,0,1l2,0c1,0,1,0,1,0l0,1Z" class="g5_1" />
<path d="M500,155c0,0,0,1,0,1l-1,0c-2,0,-2,-1,-2,-1ZM494,156l1,0l2,-1c0,1,0,1,1,2c2,0,2,-1,2,-1l1,-1l-1,0l-5,-1l0,-1l-1,0l0,2c0,-1,1,-1,1,-1l2,1l-3,0l0,1Z" class="g5_1" />
<path d="M496,157l2,2l-2,-1ZM493,158l1,0l6,1l-5,-2c0,0,-1,-1,-1,-1l0,1c0,0,0,-1,0,0c0,0,1,0,1,0l1,0l-1,1l-1,0c-1,0,0,0,0,0l-1,-1l0,1Z" class="g5_1" />
<path d="M497,164l0,-1l-4,-1c-1,-1,-1,-1,-1,0l0,-1l0,-1l0,1l1,0l4,2l-5,-3l6,1l-4,-2c-1,0,-1,0,-1,0l0,-1c0,1,0,1,1,1l4,2c0,0,1,0,1,0l0,1l-5,-1l4,2l0,1Z" class="g5_1" />
<path d="M444,133l1,0c0,-1,1,-1,1,-1l0,1c1,0,1,0,1,0c0,1,0,1,0,1c0,1,0,1,0,1l-1,1l-1,0ZM448,143l-2,-5c0,0,1,0,1,0c1,0,1,1,2,1l2,2l1,0l-2,-2c0,-1,-1,-1,-1,-2c0,0,-1,0,-1,0c0,-1,1,-1,1,-2c0,-1,-1,-1,-1,-2c0,-1,-1,-2,-1,-2c0,0,-1,-1,-1,-1c-1,0,-1,0,-2,1l-2,1l5,11Z" class="g4_1" />
<path d="M453,141l-3,-12l2,-1l1,5l2,0l-1,-5l1,-1l3,13l-1,0l-1,-5l-3,0l1,6Z" class="g4_1" />
<path d="M459,135l1,0c0,1,1,2,1,2c0,0,0,1,1,1c0,0,1,-1,1,-1c0,0,0,-1,0,-1c0,0,0,-1,0,-1c-1,-1,-1,-1,-1,-1c-1,0,-2,-1,-2,-1c0,-1,0,-2,0,-3c0,0,0,-1,0,-2c0,0,0,-1,1,-1c0,0,1,0,1,0c1,0,1,0,2,1c0,0,0,1,0,3l-1,0c0,-1,0,-1,0,-2c0,0,-1,0,-1,0c0,0,-1,0,-1,0c0,0,0,1,0,1c0,0,0,1,0,1c0,0,1,0,1,1c1,0,1,0,2,1l0,1c0,0,1,1,1,2c-1,1,-1,1,-1,2c0,1,0,1,-1,1c0,1,-1,1,-1,1c-1,0,-2,-1,-2,-1c-1,-1,-1,-2,-1,-4Z" class="g4_1" />
<path d="M467,140l2,-11l-2,0l0,-2l5,1l0,2l-2,0l-2,10Z" class="g4_1" />
<path d="M471,141l4,-12l5,1l-1,2l-3,-1l-1,3l3,1l-1,2l-3,-1l-1,3l4,1l-1,2Z" class="g4_1" />
<path d="M483,134c0,0,1,0,1,0c0,1,0,1,0,1c0,1,0,1,0,1c0,1,-1,1,-1,1c-1,1,-1,0,-1,0l-1,0l1,-3ZM478,143l2,-4l1,0c0,0,1,1,1,1c0,0,1,0,1,-1c0,0,1,0,1,0c0,-1,1,-1,1,-2c1,-1,1,-2,1,-3c0,0,0,-1,-1,-1c0,0,0,-1,-1,-1l-2,-1l-5,11Z" class="g4_1" />
<path d="M460,151c1,0,1,1,1,2c0,1,0,2,-1,2c-1,0,-1,-1,-1,-2c0,-1,1,-2,1,-2m0,0c-1,0,-1,1,-1,2c0,1,0,2,1,2c2,0,2,-1,2,-2c0,-1,-1,-2,-2,-2Z" class="g5_1" />
<path d="M463,155l0,-1l0,-2c0,-1,0,-1,0,-1l1,0l2,3l0,-2c0,0,0,-1,-1,-1l1,0c0,1,0,1,0,1l0,3l-3,-3l0,2c0,1,0,1,1,1l-1,0Z" class="g5_1" />
<path d="M467,151l3,0l0,1c-1,0,-1,0,-2,0l0,1c0,0,1,0,1,-1l0,2c0,-1,-1,-1,-1,-1l0,2c1,0,1,0,2,-1l0,1l-3,0l0,-1l0,-2c0,-1,0,-1,0,-1Z" class="g5_1" />
<path d="M460,158c0,0,-1,-1,-1,-1c-1,0,-1,1,-1,1l1,1c1,0,1,0,1,1c0,0,0,1,-1,1c-1,0,-1,0,-1,0l-1,0l0,-1c1,0,1,1,2,1c0,0,0,-1,0,-1l-1,-1c-1,0,-1,0,-1,-1c0,0,1,-1,2,-1c1,0,1,0,1,0l0,1Z" class="g5_1" />
<path d="M463,161l-2,0c0,0,1,0,1,-1l0,-3c-1,1,-1,1,-2,1l0,-1l4,0l0,1l-1,0l-1,-1l0,3c0,1,1,1,1,1Z" class="g5_1" />
<path d="M466,157c1,0,1,1,1,2c0,1,0,2,-1,2c-1,0,-1,-1,-1,-2c0,-1,0,-2,1,-2m0,0c-1,0,-2,1,-2,2c0,1,1,2,2,2c1,0,2,-1,2,-2c0,-1,-1,-2,-2,-2Z" class="g5_1" />
<path d="M469,158c0,0,0,-1,1,-1c0,0,0,1,0,1c0,1,0,1,-1,1ZM468,161l2,0c-1,0,-1,0,-1,-1l0,-1c1,0,1,0,2,0c0,0,0,-1,0,-1c0,-1,-1,-1,-1,-1l-2,0l0,1l0,2c0,1,0,1,0,1Z" class="g5_1" />
<path d="M455,164c0,0,-1,-1,-1,-1c-1,0,-1,1,-1,1l1,1c1,0,1,0,1,1c0,0,0,1,-1,1c-1,0,-1,0,-1,0l-1,0l0,-1l1,0c0,0,0,1,1,1c0,0,0,-1,0,-1l-1,-1c-1,0,-1,0,-1,-1c0,0,1,-1,2,-1l1,0l0,1Z" class="g5_1" />
<path d="M455,163l4,0l0,1l-1,0c0,0,0,-1,-1,-1l0,1l0,1c0,0,1,0,1,-1l0,2c0,-1,-1,-1,-1,-1l0,1c0,1,0,1,0,1c1,0,1,0,2,-1l0,1l-4,0c1,0,1,0,1,-1l0,-2c0,-1,0,-1,-1,-1Z" class="g5_1" />
<path d="M460,164c0,0,0,-1,1,-1c0,0,0,1,0,1c0,1,0,1,-1,1ZM463,167l-2,-2c1,0,1,0,1,-1c0,-1,-1,-1,-1,-1l-2,0c0,0,1,0,1,1l0,2c0,1,-1,1,-1,1l2,0c0,0,-1,0,-1,-1l0,-1l1,0l1,2l1,0Z" class="g5_1" />
<path d="M466,163c0,0,0,1,0,1l-1,3l-1,0l-1,-3c0,-1,0,-1,0,-1l1,0l0,1l1,2l1,-2c0,-1,0,-1,-1,-1l1,0Z" class="g5_1" />
<path d="M468,167l-1,0l0,-1l0,-2c0,-1,0,-1,0,-1l1,0l0,1l0,2c0,1,0,1,0,1Z" class="g5_1" />
<path d="M472,166c0,1,-1,1,-1,1c-1,0,-2,-1,-2,-2c0,-1,1,-2,2,-2c0,0,1,0,1,0l0,1c0,0,-1,-1,-1,-1c-1,0,-1,1,-1,2c0,0,0,1,0,1c0,1,1,1,1,1c0,0,1,0,1,-1Z" class="g5_1" />
<path d="M473,163l3,0l0,1c-1,0,-1,-1,-2,-1l0,1l0,1c0,0,1,0,1,-1l0,2c0,-1,-1,-1,-1,-1l0,1c0,1,0,1,0,1c1,0,2,0,2,-1l0,1l-3,0l0,-1l0,-2c0,-1,0,-1,0,-1Z" class="g5_1" />
<path d="M460,182l7,0l0,-6l4,0l-7,-7l-7,7l3,0Z" class="g5_1" />
<path d="M448,188l0,1c0,-1,0,-1,0,-1m0,0c0,0,-1,0,-1,0l0,1l1,0l1,-1l1,2l-1,-3l1,0l-1,0l0,1l-1,0Z" class="g5_1" />
<path d="M447.5,190.5l3,0" class="g6_1" />
<path d="M451,187l-1,0l-1,0l4,-1l-1,1l-1,0c0,0,1,0,1,0l1,-1c0,1,0,1,0,1c0,0,0,1,0,1l1,1l-1,0l0,-1c-1,0,-1,-1,-1,-1l-1,0c0,0,0,1,0,1l1,-1c0,0,0,1,0,1c1,0,1,0,0,0c0,1,0,1,0,1c0,0,-1,0,-1,0c0,0,0,-1,-1,-1c0,0,0,-1,0,-1c0,1,0,1,1,1c0,0,1,0,1,0c-1,0,-1,0,-1,0c0,-1,0,-1,0,-1Z" class="g5_1" />
<path d="M454,187c0,0,1,0,1,0c0,0,-1,0,-1,1l-1,-1l1,0c0,-1,0,-1,0,-1c0,0,1,0,1,1l0,-1l-2,0l2,-1l1,0l-1,1l1,2c0,0,-1,-1,-1,-1c0,0,-1,0,-1,0Z" class="g5_1" />
<path d="M457,186l0,1c-1,0,-1,0,-1,0c0,-1,0,-1,0,-1l1,0l1,0l0,-1l-2,0l-1,0l3,0l1,0l-1,0l0,3c0,-1,0,-1,0,-1c0,-1,-1,-1,-1,-1Z" class="g5_1" />
<path d="M460.5,186.5l3,0" class="g6_1" />
<path d="M461.5,187.5l0,-2" class="g6_1" />
<path d="M464,185l0,-1l1,1l-1,0l0,3l0,-1l0,-2l-1,0l0,-1c0,0,1,0,1,1Z" class="g5_1" />
<path d="M467,185c-1,0,-1,0,-1,0l1,0m0,0l1,0l-1,0l-3,-1l0,1l1,0l0,1c0,0,1,0,1,-1c0,0,0,1,0,1l1,0c0,0,0,-1,0,-1Z" class="g5_1" />
<path d="M466,187c1,0,1,1,1,1l0,1c0,-1,-1,-1,-1,-2l-1,0l0,-1c0,0,1,1,1,1c1,0,1,-1,1,-1l-1,0c0,1,0,1,0,1c0,0,0,-1,-1,-1l1,0c1,0,1,0,1,0l0,1l-1,0Z" class="g5_1" />
<path d="M469,185l0,1c-1,0,-1,0,-1,0c0,1,0,1,0,1c0,0,0,1,0,1l-1,0c0,0,1,0,1,0c0,-1,0,-1,0,-1c0,-1,0,-1,0,-1l0,-1l-1,0l2,0Z" class="g5_1" />
<path d="M471,188c0,0,1,0,1,0c0,0,0,1,0,1l-1,0c0,0,0,-1,0,-1l0,-1c0,-1,0,-1,1,-1l1,0c-1,0,-1,0,-1,0c0,0,-1,1,-1,1c0,0,0,1,0,1Z" class="g5_1" />
<path d="M474,187l1,0l-1,1c0,-1,0,-1,0,-1m2,0l-1,0l-3,-1l1,0l0,1c0,0,1,0,0,0c0,1,0,1,0,1c0,0,0,-1,0,-1l-1,0c0,1,1,1,1,1l1,0l0,1l0,1l1,-3Z" class="g5_1" />
<path d="M476,190c0,-1,0,-1,0,-1c0,0,1,-1,1,0ZM478,188l-3,-1l1,0l1,1c0,0,-1,0,-2,0l0,1c1,0,1,1,1,1l0,1l2,-3Z" class="g5_1" />
<path d="M478,188l1,0l0,1l-2,2l1,-2c0,-1,0,-1,0,-1Z" class="g5_1" />
<path d="M464,193l-1,0l-1,0c-1,-1,-1,-1,-1,-2c0,0,1,0,1,1c1,0,1,1,1,1c0,0,0,-1,1,-1c0,0,-1,0,-1,0c0,0,0,-1,0,-1l1,0l-1,0c0,1,0,1,-1,1l0,-1c1,-1,1,-1,1,-1c0,0,1,0,1,1c0,0,0,1,0,1c0,1,0,1,0,1Z" class="g5_1" />
<path d="M455,195c-1,0,-1,0,-1,-1c0,0,-1,0,-1,0c0,1,0,1,0,1l0,1l-1,-1l-1,3l1,-3l-1,-1l1,1c0,-1,0,-1,0,-1c1,0,1,0,1,0c0,0,1,0,1,0l1,1l0,1Z" class="g5_1" />
<path d="M454,197l-1,0c-1,0,-1,0,-1,0c0,-1,0,-1,0,-1l1,0l0,-1c0,1,0,0,-1,0l1,0c0,0,0,1,0,1c1,0,1,-1,1,0l1,0l0,-1l0,1l1,1l-1,-1l-1,3l0,-2c0,-1,0,-1,0,-1c0,0,0,1,0,1Z" class="g5_1" />
<path d="M458,197l0,1c1,0,1,0,1,0c0,0,0,1,-1,1l0,-1l-1,2c0,-1,0,-1,0,-1c-1,0,-1,0,-1,0c0,-1,0,-1,0,-1l0,-1c0,1,0,1,-1,1l0,-1l1,0c0,0,-1,0,-1,-1l4,1ZM457,198c0,0,0,-1,0,-1c-1,0,-1,0,-1,0l0,-1c0,1,0,1,0,1c0,0,1,0,1,1l0,1Z" class="g5_1" />
<path d="M459,197c0,0,0,-1,0,-1l1,0l0,1l-1,4l0,-1l0,-2c0,0,0,-1,0,-1l-1,-1c0,0,1,0,1,1Z" class="g5_1" />
<path d="M464,199c0,-1,0,-1,0,-1l0,3l-1,-1c0,-1,-1,-1,-1,-1l-1,-1c1,0,2,0,2,-1l-2,0l4,0l-1,0l0,1c1,0,1,0,1,1c0,0,-1,0,-1,0l0,-1l0,1m-1,-1c-1,0,-1,0,-1,0c1,1,1,1,1,1Z" class="g5_1" />
<path d="M465,197c0,0,0,-1,0,-1c0,0,0,1,0,1l1,0l0,4l-1,-1l0,-2c0,-1,0,-1,0,-1l-1,0c1,0,1,0,1,0Z" class="g5_1" />
<path d="M468,197l1,3l-1,0c0,0,0,-1,0,-1c-1,0,-1,0,-1,0l-1,-1c0,0,1,0,1,0c0,0,0,-1,0,-1l-1,0l-1,0l3,-1l1,1ZM468,197l-1,0l1,1c0,0,-1,0,-1,0c0,1,1,1,1,1Z" class="g5_1" />
<path d="M467,196l-1,1l2,-2l1,0Z" class="g5_1" />
<path d="M468,197l4,-1l1,0ZM471,199l0,-2l-1,0l0,1l1,0c0,0,-1,0,-1,0c0,1,0,0,0,0c0,-1,0,-1,0,-1c0,0,0,-1,1,-1l0,1c1,0,1,0,1,0c1,0,1,0,1,0c0,1,0,1,0,1c-1,0,-1,0,-1,0c0,0,0,-1,0,-1l0,1c0,-1,0,-1,0,-1l0,1l0,2c0,0,0,-1,0,-1l-1,0c-1,0,-1,0,-1,0c-1,0,-1,0,-1,-1c0,0,0,-1,0,-1l0,1c0,1,0,1,1,1c0,0,1,0,1,0c0,-1,0,-1,0,0Z" class="g5_1" />
<path d="M472,196l-1,0l3,-1l1,0l-1,0l2,3l-1,0c0,0,0,-1,0,-1c-1,0,-1,0,-1,0c0,1,0,1,0,1c-1,0,-1,0,-1,0l0,-1c0,-1,0,-1,0,-1c-1,0,-1,0,-1,0m2,-1l-1,1c0,0,1,0,1,1l1,0Z" class="g5_1" />
</g>
</svg>